<?xml version="1.0" encoding="utf-8"?>
<!-- Generator: Adobe Illustrator 21.0.2, SVG Export Plug-In . SVG Version: 6.00 Build 0)  -->
<svg version="1.1" id="圖層_1" xmlns="http://www.w3.org/2000/svg" xmlns:xlink="http://www.w3.org/1999/xlink" x="0px" y="0px"
	 viewBox="0 0 64 24" style="enable-background:new 0 0 64 24;" xml:space="preserve">
<style type="text/css">
	.st0{fill:#006AA6;}
</style>
<g>
	<circle class="st0" cx="12.8" cy="11.2" r="2"/>
	<path class="st0" d="M9.6,0H0v24h9.6c5.3,0,9.6-4.3,9.6-9.6V9.6C19.2,4.3,14.9,0,9.6,0z M16.8,14.4c0,0.2,0,0.5,0,0.7
		c-0.3,0.2-0.6,0.3-0.9,0.3c-0.1,0-0.3,0-0.4,0c-0.7-0.2-1.3-0.6-1.8-1.1L12,16c1,1,2.4,1.7,3.9,1.9c-1.2,2.2-3.6,3.7-6.3,3.7H2.4
		v-9.8c4.9-0.7,9.2-3.3,12-7.1c0.6,0.4,1.1,0.9,1.5,1.5c0.5,1,0.8,2.2,0.8,3.4v4.8C16.7,14.4,16.8,14.4,16.8,14.4z"/>
	<path class="st0" d="M24.8,16c0-1,0.6-1.6,2.4-1.6c1.2,0,2.4,0,4,0.8l0,0v-2.4C29.9,12,28,12,26.4,12c-2.8,0-4,1.6-4,3.6
		c0,2.4,0,2.4,0,2.4s0,0,0,2.4c0,2,1.2,3.6,4,3.6c1.6,0,3.5,0,4.8-0.8v-2.4l0,0c-1.6,0.8-2.8,0.8-4,0.8c-1.8,0-2.4-0.6-2.4-1.6v-2
		C24.8,18,24.8,16,24.8,16z"/>
	<path class="st0" d="M39.2,12c-1.6,0-3.5,0-4.8,0.8v2.4l0,0c1.6-0.8,2.8-0.8,4-0.8c1.8,0,2.4,0.6,2.4,1.6v0.8
		c-3.8,0-7.2,0.8-7.2,3.6s1.6,3.6,4,3.6h3.2h2.4v-6v-2.4C43.2,13.6,42,12,39.2,12z M40.8,21.6h-3.2c0,0-1.4,0-1.4-1.2
		s1.4-1.6,4.6-1.6C40.8,18.8,40.8,21.6,40.8,21.6z"/>
	<path class="st0" d="M45.8,14v2l0,0v8h2.4v-8l0,0v-0.4c0-1.3,4-1.6,4-1.6v-2C47,12,45.8,14,45.8,14z"/>
	<path class="st0" d="M61.6,5.6h-0.8c0.8,2.5,0.8,6.6,0.8,6.8c-0.1,0-1.3-0.4-3.2-0.4c-1.3,0-4,0.1-4,4c0,0,0,1.2,0,2
		c0,0.2,0,0.2,0,0.2c0-1,0-0.2,0,0c0,0.3,0,0.9,0,1.8c0,4.4,4,4,4,4h3.2H64V5.6H61.6z M61.6,21.6h-2.4c0,0-2.4,0.1-2.4-2.4
		s-0.1-4.1,0.9-4.9c1.1-0.7,3.9,0.1,3.9,0.1V21.6z"/>
</g>
</svg>
